package main

func main(){
	a := 3
	
	//b := fat(a)
	
	//print(b, "<- valor de b", a, "<- valor de A")
	
}

func fat(n1 int)int {

	result := 1	
	for result = 1; n1>0; n1--{
		result = result*n1
	}
	
	return result
}